{
    "transform": {
        "^.+\\.(t|j)sx?$": "ts-jest"
    },
    "testRegex": "(/__tests__/.*|(\\.|/)(test|spec))\\.(js?|ts?)$",
    "moduleFileExtensions": [
        "ts",
        "tsx",
        "js",
        "jsx",
        "json",
        "node"
    ],
    "collectCoverage": true
}